…
## Exercise 1: Univariate Data Reshaping

The Exercise 1 and 2 need to use the date frame `gapminder`. It would be better to check the structure of this data frame before we get start.

```r
gapminder
```

```
## # A tibble: 1,704 x 6
##    country     continent  year lifeExp      pop gdpPercap
##    <fct>       <fct>     <int>   <dbl>    <int>     <dbl>
##  1 Afghanistan Asia       1952    28.8  8425333      779.
##  2 Afghanistan Asia       1957    30.3  9240934      821.
##  3 Afghanistan Asia       1962    32.0 10267083      853.
##  4 Afghanistan Asia       1967    34.0 11537966      836.
##  5 Afghanistan Asia       1972    36.1 13079460      740.
##  6 Afghanistan Asia       1977    38.4 14880372      786.
##  7 Afghanistan Asia       1982    39.9 12881816      978.
##  8 Afghanistan Asia       1987    40.8 13867957      852.
##  9 Afghanistan Asia       1992    41.7 16317921      649.
## 10 Afghanistan Asia       1997    41.8 22227415      635.
## # ... with 1,694 more rows
```
…
After load the data, we can check the data by calling their assigned name.
* The guest 

```r
guest
```

```
## # A tibble: 30 x 7
##    party name  meal_wedding meal_brunch attendance_wedd~ attendance_brun~
##    <dbl> <chr> <chr>        <chr>       <chr>            <chr>           
##  1     1 Somm~ PENDING      PENDING     PENDING          PENDING         
##  2     1 Phil~ vegetarian   Menu C      CONFIRMED        CONFIRMED       
##  3     1 Blan~ chicken      Menu A      CONFIRMED        CONFIRMED       
##  4     1 Emaa~ PENDING      PENDING     PENDING          PENDING         
##  5     2 Blai~ chicken      Menu C      CONFIRMED        CONFIRMED       
##  6     2 Nige~ <NA>         <NA>        CANCELLED        CANCELLED       
##  7     3 Sine~ PENDING      PENDING     PENDING          PENDING         
##  8     4 Ayra~ vegetarian   Menu B      PENDING          PENDING         
##  9     5 Atla~ PENDING      PENDING     PENDING          PENDING         
## 10     5 Denz~ fish         Menu B      CONFIRMED        CONFIRMED       
## # ... with 20 more rows, and 1 more variable: attendance_golf <chr>
```
…
To add the email for each guest in the `guest` tibble


```r
guest  %>%
  left_join(email_shaped, by = "name")
```

```
## # A tibble: 30 x 8
##    party name  meal_wedding meal_brunch attendance_wedd~ attendance_brun~
##    <dbl> <chr> <chr>        <chr>       <chr>            <chr>           
##  1     1 Somm~ PENDING      PENDING     PENDING          PENDING         
##  2     1 Phil~ vegetarian   Menu C      CONFIRMED        CONFIRMED       
##  3     1 Blan~ chicken      Menu A      CONFIRMED        CONFIRMED       
##  4     1 Emaa~ PENDING      PENDING     PENDING          PENDING         
##  5     2 Blai~ chicken      Menu C      CONFIRMED        CONFIRMED       
##  6     2 Nige~ <NA>         <NA>        CANCELLED        CANCELLED       
##  7     3 Sine~ PENDING      PENDING     PENDING          PENDING         
##  8     4 Ayra~ vegetarian   Menu B      PENDING          PENDING         
##  9     5 Atla~ PENDING      PENDING     PENDING          PENDING         
## 10     5 Denz~ fish         Menu B      CONFIRMED        CONFIRMED       
## # ... with 20 more rows, and 2 more variables: attendance_golf <chr>,
## #   email <chr>
```
…
