…
```
## starting httpd help server ... done
```
To explore if there is a corelation between car weight and Miles/(US) gallon.

```r
mtcars %>%
  group_by(wt) %>% 
  dplyr::summarise(mpgmean = mean(mpg)) %>%
  plyr::arrange(desc(mpgmean))
```

```
## # A tibble: 29 x 2
##       wt mpgmean
##    <dbl>   <dbl>
##  1  1.84    33.9
##  2  2.2     32.4
##  3  1.51    30.4
##  4  1.62    30.4
##  5  1.94    27.3
##  6  2.14    26  
##  7  3.19    24.4
##  8  2.32    22.8
##  9  3.15    22.8
## 10  2.46    21.5
## # ... with 19 more rows
```
…
