hw_05: Factor and figure management
…
Step 3: Reload it back

reload_Am <-read_csv(here::here('hw05','Americas_data.csv'))

## Parsed with column specification:
## cols(
##   continent = col_character(),
##   country = col_character(),
##   year = col_double(),
##   gdpPercap = col_double()
## )

reload_Am

## # A tibble: 300 x 4
##    continent country    year gdpPercap
##    <chr>     <chr>     <dbl>     <dbl>
##  1 Americas  Argentina  1952     5911.
##  2 Americas  Argentina  1957     6857.
##  3 Americas  Argentina  1962     7133.
##  4 Americas  Argentina  1967     8053.
##  5 Americas  Argentina  1972     9443.
##  6 Americas  Argentina  1977    10079.
##  7 Americas  Argentina  1982     8998.
##  8 Americas  Argentina  1987     9140.
##  9 Americas  Argentina  1992     9308.
## 10 Americas  Argentina  1997    10967.
## # ... with 290 more rows
…
