…
### Task Option 1

Report the absolute and/or relative abundance of countries with low life expectancy over time by continent: how many countries on each continent have a life expectancy less than *27*, for each year.


```r
gapminder %>%
  select (lifeExp, year) %>%
  group_by(year) %>%
  arrange (year)
```

```
## # A tibble: 1,704 x 2
## # Groups:   year [12]
##    lifeExp  year
##      <dbl> <int>
##  1    28.8  1952
##  2    55.2  1952
##  3    43.1  1952
##  4    30.0  1952
##  5    62.5  1952
##  6    69.1  1952
##  7    66.8  1952
##  8    50.9  1952
##  9    37.5  1952
## 10    68    1952
## # ... with 1,694 more rows
```
…
